cloud_fpga/qflow_kernel/results/local_sim_output.txt
PASS T001_normal_ring6: path=1 weight=3665362 bottleneck=61612 latency_cycles=2
PASS T002_blocked_candidate: path=3 weight=1997214 bottleneck=64879 latency_cycles=2
PASS T003_high_threshold: path=1 weight=3617938 bottleneck=63568 latency_cycles=2
PASS T004_all_candidates_valid: path=1 weight=1348412 bottleneck=64879 latency_cycles=2
PASS T005_no_valid_path: path=0 weight=4294967295 bottleneck=0 latency_cycles=2
PASS T006_equal_weight_tie: path=0 weight=679454 bottleneck=64223 latency_cycles=2
PASS T007_low_key_penalty: path=1 weight=674206 bottleneck=64879 latency_cycles=2
PASS T008_low_fidelity_penalty: path=1 weight=674206 bottleneck=64879 latency_cycles=2
PASS T009_high_qber_penalty: path=1 weight=679454 bottleneck=64223 latency_cycles=2
PASS T010_distance_penalty: path=1 weight=679454 bottleneck=64223 latency_cycles=2
PASS T011_invalid_edge_id: path=1 weight=744990 bottleneck=64223 latency_cycles=2
PASS T012_zero_length_candidate: path=1 weight=613918 bottleneck=64223 latency_cycles=2
PASS T013_arrival_bucket_penalty: path=2 weight=679454 bottleneck=64223 latency_cycles=2
PASS T014_decay_zero_boundary: path=0 weight=684694 bottleneck=63568 latency_cycles=2
PASS T015_decay_max_boundary: path=3 weight=870814 bottleneck=64879 latency_cycles=2
PASS R000_seeded_random: path=0 weight=498023 bottleneck=60268 latency_cycles=2
PASS R001_seeded_random: path=0 weight=4294967295 bottleneck=0 latency_cycles=2
PASS R002_seeded_random: path=0 weight=4294967295 bottleneck=0 latency_cycles=2
PASS R003_seeded_random: path=0 weight=4294967295 bottleneck=0 latency_cycles=2
PASS R004_seeded_random: path=0 weight=737363 bottleneck=62580 latency_cycles=2
PASS R005_seeded_random: path=0 weight=3196462 bottleneck=52135 latency_cycles=2
PASS R006_seeded_random: path=0 weight=4294967295 bottleneck=0 latency_cycles=2
PASS R007_seeded_random: path=0 weight=4294967295 bottleneck=0 latency_cycles=2
PASS R008_seeded_random: path=0 weight=4294967295 bottleneck=0 latency_cycles=2
PASS R009_seeded_random: path=0 weight=4041741 bottleneck=55404 latency_cycles=2
PASS R010_seeded_random: path=1 weight=1543364 bottleneck=58946 latency_cycles=2
PASS R011_seeded_random: path=0 weight=4294967295 bottleneck=0 latency_cycles=2
PASS R012_seeded_random: path=0 weight=4294967295 bottleneck=0 latency_cycles=2
PASS R013_seeded_random: path=0 weight=4294967295 bottleneck=0 latency_cycles=2
PASS R014_seeded_random: path=3 weight=526663 bottleneck=60310 latency_cycles=2
PASS R015_seeded_random: path=1 weight=1794544 bottleneck=55392 latency_cycles=2
PASS R016_seeded_random: path=0 weight=4294967295 bottleneck=0 latency_cycles=2
PASS R017_seeded_random: path=0 weight=4294967295 bottleneck=0 latency_cycles=2
PASS R018_seeded_random: path=0 weight=4294967295 bottleneck=0 latency_cycles=2
PASS R019_seeded_random: path=3 weight=1819693 bottleneck=65057 latency_cycles=2
PASS R020_seeded_random: path=0 weight=4294967295 bottleneck=0 latency_cycles=2
PASS R021_seeded_random: path=0 weight=4294967295 bottleneck=0 latency_cycles=2
PASS R022_seeded_random: path=0 weight=4294967295 bottleneck=0 latency_cycles=2
PASS R023_seeded_random: path=0 weight=4294967295 bottleneck=0 latency_cycles=2
PASS R024_seeded_random: path=2 weight=2567056 bottleneck=56848 latency_cycles=2
PASS R025_seeded_random: path=1 weight=2095507 bottleneck=53215 latency_cycles=2
PASS R026_seeded_random: path=0 weight=4294967295 bottleneck=0 latency_cycles=2
PASS R027_seeded_random: path=0 weight=4294967295 bottleneck=0 latency_cycles=2
PASS R028_seeded_random: path=0 weight=4294967295 bottleneck=0 latency_cycles=2
PASS R029_seeded_random: path=0 weight=980886 bottleneck=54280 latency_cycles=2
PASS R030_seeded_random: path=2 weight=2802446 bottleneck=52483 latency_cycles=2
PASS R031_seeded_random: path=0 weight=4294967295 bottleneck=0 latency_cycles=2
PASS R032_seeded_random: path=0 weight=4294967295 bottleneck=0 latency_cycles=2
PASS R033_seeded_random: path=0 weight=4294967295 bottleneck=0 latency_cycles=2
PASS R034_seeded_random: path=2 weight=3888062 bottleneck=50644 latency_cycles=2
PASS R035_seeded_random: path=1 weight=2497775 bottleneck=61044 latency_cycles=2
PASS R036_seeded_random: path=0 weight=4294967295 bottleneck=0 latency_cycles=2
PASS R037_seeded_random: path=0 weight=4294967295 bottleneck=0 latency_cycles=2
PASS R038_seeded_random: path=0 weight=4294967295 bottleneck=0 latency_cycles=2
PASS R039_seeded_random: path=1 weight=1179034 bottleneck=56966 latency_cycles=2
PASS R040_seeded_random: path=0 weight=4294967295 bottleneck=0 latency_cycles=2
PASS R041_seeded_random: path=0 weight=4294967295 bottleneck=0 latency_cycles=2
PASS R042_seeded_random: path=0 weight=4294967295 bottleneck=0 latency_cycles=2
PASS R043_seeded_random: path=0 weight=4294967295 bottleneck=0 latency_cycles=2
PASS R044_seeded_random: path=1 weight=1041518 bottleneck=53264 latency_cycles=2
PASS R045_seeded_random: path=0 weight=4294967295 bottleneck=0 latency_cycles=2
PASS R046_seeded_random: path=0 weight=4294967295 bottleneck=0 latency_cycles=2
PASS R047_seeded_random: path=0 weight=4294967295 bottleneck=0 latency_cycles=2
PASS R048_seeded_random: path=0 weight=4294967295 bottleneck=0 latency_cycles=2
PASS R049_seeded_random: path=0 weight=1591166 bottleneck=63747 latency_cycles=2
PASS R050_seeded_random: path=1 weight=1028537 bottleneck=56264 latency_cycles=2
PASS R051_seeded_random: path=0 weight=4294967295 bottleneck=0 latency_cycles=2
PASS R052_seeded_random: path=0 weight=4294967295 bottleneck=0 latency_cycles=2
PASS R053_seeded_random: path=0 weight=4294967295 bottleneck=0 latency_cycles=2
PASS R054_seeded_random: path=2 weight=691030 bottleneck=61031 latency_cycles=2
PASS R055_seeded_random: path=2 weight=1217891 bottleneck=48922 latency_cycles=2
PASS R056_seeded_random: path=0 weight=4294967295 bottleneck=0 latency_cycles=2
PASS R057_seeded_random: path=0 weight=4294967295 bottleneck=0 latency_cycles=2
PASS R058_seeded_random: path=0 weight=4294967295 bottleneck=0 latency_cycles=2
PASS R059_seeded_random: path=0 weight=3684660 bottleneck=47905 latency_cycles=2
PASS R060_seeded_random: path=0 weight=4294967295 bottleneck=0 latency_cycles=2
PASS R061_seeded_random: path=0 weight=4294967295 bottleneck=0 latency_cycles=2
PASS R062_seeded_random: path=0 weight=4294967295 bottleneck=0 latency_cycles=2
PASS R063_seeded_random: path=0 weight=4294967295 bottleneck=0 latency_cycles=2
PASS R064_seeded_random: path=2 weight=1230130 bottleneck=56812 latency_cycles=2
PASS R065_seeded_random: path=0 weight=743331 bottleneck=63147 latency_cycles=2
PASS R066_seeded_random: path=0 weight=4294967295 bottleneck=0 latency_cycles=2
PASS R067_seeded_random: path=0 weight=4294967295 bottleneck=0 latency_cycles=2
PASS R068_seeded_random: path=0 weight=4294967295 bottleneck=0 latency_cycles=2
PASS R069_seeded_random: path=1 weight=2381693 bottleneck=48556 latency_cycles=2
PASS R070_seeded_random: path=2 weight=1206581 bottleneck=57333 latency_cycles=2
PASS R071_seeded_random: path=0 weight=4294967295 bottleneck=0 latency_cycles=2
PASS R072_seeded_random: path=0 weight=4294967295 bottleneck=0 latency_cycles=2
PASS R073_seeded_random: path=0 weight=4294967295 bottleneck=0 latency_cycles=2
PASS R074_seeded_random: path=2 weight=1603233 bottleneck=50479 latency_cycles=2
PASS R075_seeded_random: path=0 weight=4294967295 bottleneck=0 latency_cycles=2
PASS R076_seeded_random: path=0 weight=4294967295 bottleneck=0 latency_cycles=2
PASS R077_seeded_random: path=0 weight=4294967295 bottleneck=0 latency_cycles=2
PASS R078_seeded_random: path=0 weight=4294967295 bottleneck=0 latency_cycles=2
PASS R079_seeded_random: path=1 weight=677505 bottleneck=52267 latency_cycles=2
PASS R080_seeded_random: path=0 weight=1002388 bottleneck=55523 latency_cycles=2
PASS R081_seeded_random: path=3 weight=3138442 bottleneck=59849 latency_cycles=2
PASS R082_seeded_random: path=0 weight=4294967295 bottleneck=0 latency_cycles=2
PASS R083_seeded_random: path=0 weight=4294967295 bottleneck=0 latency_cycles=2
PASS R084_seeded_random: path=0 weight=983634 bottleneck=56881 latency_cycles=2
PASS R085_seeded_random: path=3 weight=3604710 bottleneck=60020 latency_cycles=2
PASS R086_seeded_random: path=0 weight=4294967295 bottleneck=0 latency_cycles=2
PASS R087_seeded_random: path=0 weight=4294967295 bottleneck=0 latency_cycles=2
PASS R088_seeded_random: path=0 weight=4294967295 bottleneck=0 latency_cycles=2
PASS R089_seeded_random: path=2 weight=2325362 bottleneck=58429 latency_cycles=2
PASS R090_seeded_random: path=0 weight=4294967295 bottleneck=0 latency_cycles=2
PASS R091_seeded_random: path=0 weight=4294967295 bottleneck=0 latency_cycles=2
PASS R092_seeded_random: path=0 weight=4294967295 bottleneck=0 latency_cycles=2
PASS R093_seeded_random: path=0 weight=4294967295 bottleneck=0 latency_cycles=2
PASS R094_seeded_random: path=3 weight=742186 bottleneck=60308 latency_cycles=2
PASS R095_seeded_random: path=0 weight=2278609 bottleneck=58053 latency_cycles=2
PASS R096_seeded_random: path=0 weight=4294967295 bottleneck=0 latency_cycles=2
PASS R097_seeded_random: path=0 weight=4294967295 bottleneck=0 latency_cycles=2
PASS R098_seeded_random: path=0 weight=2122057 bottleneck=63957 latency_cycles=2
PASS R099_seeded_random: path=2 weight=2243915 bottleneck=55279 latency_cycles=2
PASS R100_seeded_random: path=2 weight=672279 bottleneck=57201 latency_cycles=2
PASS R101_seeded_random: path=0 weight=4294967295 bottleneck=0 latency_cycles=2
PASS R102_seeded_random: path=0 weight=4294967295 bottleneck=0 latency_cycles=2
PASS R103_seeded_random: path=0 weight=4294967295 bottleneck=0 latency_cycles=2
PASS R104_seeded_random: path=3 weight=491856 bottleneck=63441 latency_cycles=2
PASS R105_seeded_random: path=2 weight=1551323 bottleneck=61239 latency_cycles=2
PASS R106_seeded_random: path=0 weight=4294967295 bottleneck=0 latency_cycles=2
PASS R107_seeded_random: path=0 weight=4294967295 bottleneck=0 latency_cycles=2
PASS R108_seeded_random: path=0 weight=4294967295 bottleneck=0 latency_cycles=2
PASS R109_seeded_random: path=2 weight=1190416 bottleneck=49734 latency_cycles=2
PASS R110_seeded_random: path=2 weight=810955 bottleneck=55460 latency_cycles=2
PASS R111_seeded_random: path=0 weight=4294967295 bottleneck=0 latency_cycles=2
PASS R112_seeded_random: path=0 weight=4294967295 bottleneck=0 latency_cycles=2
PASS R113_seeded_random: path=0 weight=4294967295 bottleneck=0 latency_cycles=2
PASS R114_seeded_random: path=3 weight=2543941 bottleneck=59363 latency_cycles=2
PASS R115_seeded_random: path=2 weight=820489 bottleneck=51826 latency_cycles=2
PASS R116_seeded_random: path=0 weight=4294967295 bottleneck=0 latency_cycles=2
PASS R117_seeded_random: path=0 weight=4294967295 bottleneck=0 latency_cycles=2
PASS R118_seeded_random: path=0 weight=4294967295 bottleneck=0 latency_cycles=2
PASS R119_seeded_random: path=2 weight=3033462 bottleneck=54297 latency_cycles=2
PASS R120_seeded_random: path=0 weight=4294967295 bottleneck=0 latency_cycles=2
PASS R121_seeded_random: path=0 weight=4294967295 bottleneck=0 latency_cycles=2
PASS R122_seeded_random: path=0 weight=4294967295 bottleneck=0 latency_cycles=2
PASS R123_seeded_random: path=0 weight=4294967295 bottleneck=0 latency_cycles=2
PASS R124_seeded_random: path=0 weight=1322631 bottleneck=63507 latency_cycles=2
PASS R125_seeded_random: path=0 weight=1215638 bottleneck=60659 latency_cycles=2
PASS R126_seeded_random: path=0 weight=4294967295 bottleneck=0 latency_cycles=2
PASS R127_seeded_random: path=0 weight=4294967295 bottleneck=0 latency_cycles=2
PASS R128_seeded_random: path=0 weight=4294967295 bottleneck=0 latency_cycles=2
PASS R129_seeded_random: path=1 weight=2665028 bottleneck=53180 latency_cycles=2
PASS R130_seeded_random: path=1 weight=938976 bottleneck=60408 latency_cycles=2
PASS R131_seeded_random: path=0 weight=4294967295 bottleneck=0 latency_cycles=2
PASS R132_seeded_random: path=0 weight=4294967295 bottleneck=0 latency_cycles=2
PASS R133_seeded_random: path=0 weight=4294967295 bottleneck=0 latency_cycles=2
PASS R134_seeded_random: path=3 weight=2084062 bottleneck=55664 latency_cycles=2
PASS R135_seeded_random: path=3 weight=1262459 bottleneck=54491 latency_cycles=2
PASS R136_seeded_random: path=0 weight=4294967295 bottleneck=0 latency_cycles=2
PASS R137_seeded_random: path=0 weight=4294967295 bottleneck=0 latency_cycles=2
PASS R138_seeded_random: path=0 weight=4294967295 bottleneck=0 latency_cycles=2
PASS R139_seeded_random: path=0 weight=1250581 bottleneck=59483 latency_cycles=2
PASS R140_seeded_random: path=1 weight=4111404 bottleneck=54053 latency_cycles=2
PASS R141_seeded_random: path=0 weight=4294967295 bottleneck=0 latency_cycles=2
PASS R142_seeded_random: path=0 weight=4294967295 bottleneck=0 latency_cycles=2
PASS R143_seeded_random: path=0 weight=4294967295 bottleneck=0 latency_cycles=2
PASS R144_seeded_random: path=0 weight=1574992 bottleneck=54551 latency_cycles=2
PASS R145_seeded_random: path=1 weight=498536 bottleneck=57485 latency_cycles=2
PASS R146_seeded_random: path=1 weight=3992513 bottleneck=55325 latency_cycles=2
PASS R147_seeded_random: path=0 weight=4294967295 bottleneck=0 latency_cycles=2
PASS R148_seeded_random: path=0 weight=4294967295 bottleneck=0 latency_cycles=2
PASS R149_seeded_random: path=3 weight=1948131 bottleneck=52785 latency_cycles=2
PASS R150_seeded_random: path=0 weight=4294967295 bottleneck=0 latency_cycles=2
PASS R151_seeded_random: path=0 weight=4294967295 bottleneck=0 latency_cycles=2
PASS R152_seeded_random: path=0 weight=4294967295 bottleneck=0 latency_cycles=2
PASS R153_seeded_random: path=0 weight=4294967295 bottleneck=0 latency_cycles=2
PASS R154_seeded_random: path=1 weight=5458081 bottleneck=46274 latency_cycles=2
PASS R155_seeded_random: path=0 weight=4294967295 bottleneck=0 latency_cycles=2
PASS R156_seeded_random: path=0 weight=4294967295 bottleneck=0 latency_cycles=2
PASS R157_seeded_random: path=0 weight=4294967295 bottleneck=0 latency_cycles=2
PASS R158_seeded_random: path=0 weight=4294967295 bottleneck=0 latency_cycles=2
PASS R159_seeded_random: path=0 weight=800415 bottleneck=59597 latency_cycles=2
PASS R160_seeded_random: path=3 weight=2777348 bottleneck=60152 latency_cycles=2
PASS R161_seeded_random: path=0 weight=4294967295 bottleneck=0 latency_cycles=2
PASS R162_seeded_random: path=0 weight=4294967295 bottleneck=0 latency_cycles=2
PASS R163_seeded_random: path=0 weight=4294967295 bottleneck=0 latency_cycles=2
PASS R164_seeded_random: path=0 weight=1222293 bottleneck=61145 latency_cycles=2
PASS R165_seeded_random: path=1 weight=1615875 bottleneck=62978 latency_cycles=2
PASS R166_seeded_random: path=0 weight=4294967295 bottleneck=0 latency_cycles=2
PASS R167_seeded_random: path=0 weight=4294967295 bottleneck=0 latency_cycles=2
PASS R168_seeded_random: path=0 weight=4294967295 bottleneck=0 latency_cycles=2
PASS R169_seeded_random: path=0 weight=2239311 bottleneck=53843 latency_cycles=2
PASS R170_seeded_random: path=3 weight=5146127 bottleneck=55909 latency_cycles=2
PASS R171_seeded_random: path=0 weight=4294967295 bottleneck=0 latency_cycles=2
PASS R172_seeded_random: path=0 weight=4294967295 bottleneck=0 latency_cycles=2
PASS R173_seeded_random: path=0 weight=4294967295 bottleneck=0 latency_cycles=2
PASS R174_seeded_random: path=1 weight=2922877 bottleneck=51648 latency_cycles=2
PASS R175_seeded_random: path=1 weight=1294158 bottleneck=63854 latency_cycles=2
PASS R176_seeded_random: path=0 weight=4294967295 bottleneck=0 latency_cycles=2
PASS R177_seeded_random: path=0 weight=4294967295 bottleneck=0 latency_cycles=2
PASS R178_seeded_random: path=0 weight=4294967295 bottleneck=0 latency_cycles=2
PASS R179_seeded_random: path=2 weight=775301 bottleneck=47585 latency_cycles=2
PASS R180_seeded_random: path=0 weight=4294967295 bottleneck=0 latency_cycles=2
PASS R181_seeded_random: path=0 weight=4294967295 bottleneck=0 latency_cycles=2
PASS R182_seeded_random: path=0 weight=4294967295 bottleneck=0 latency_cycles=2
PASS R183_seeded_random: path=0 weight=4294967295 bottleneck=0 latency_cycles=2
PASS R184_seeded_random: path=2 weight=1687066 bottleneck=50137 latency_cycles=2
PASS R185_seeded_random: path=3 weight=460674 bottleneck=58501 latency_cycles=2
PASS R186_seeded_random: path=0 weight=4294967295 bottleneck=0 latency_cycles=2
PASS R187_seeded_random: path=0 weight=4294967295 bottleneck=0 latency_cycles=2
PASS R188_seeded_random: path=0 weight=4294967295 bottleneck=0 latency_cycles=2
PASS R189_seeded_random: path=0 weight=5381134 bottleneck=50897 latency_cycles=2
PASS R190_seeded_random: path=0 weight=2388282 bottleneck=59960 latency_cycles=2
PASS R191_seeded_random: path=0 weight=4294967295 bottleneck=0 latency_cycles=2
PASS R192_seeded_random: path=0 weight=4294967295 bottleneck=0 latency_cycles=2
PASS R193_seeded_random: path=0 weight=4294967295 bottleneck=0 latency_cycles=2
PASS R194_seeded_random: path=0 weight=980540 bottleneck=53861 latency_cycles=2
PASS R195_seeded_random: path=2 weight=1868824 bottleneck=58382 latency_cycles=2
PASS R196_seeded_random: path=0 weight=4294967295 bottleneck=0 latency_cycles=2
PASS R197_seeded_random: path=0 weight=4294967295 bottleneck=0 latency_cycles=2
PASS R198_seeded_random: path=0 weight=4294967295 bottleneck=0 latency_cycles=2
PASS R199_seeded_random: path=2 weight=1112355 bottleneck=61339 latency_cycles=2
ALL TESTS PASS
tb/tb_qflow_cloud_kernel.v:16506: $finish called at 8625000 (1ps)
